MRF_Clin_Prelim_Analysis
…
Load the data

mrf_raw <- read_xlsx("./data/2024-05-10-MRF-CLIN-db.xlsx", col_names = TRUE) %>% clean_names() %>% slice(5:n())

New names:
• `` -> `...1`
• `` -> `...40`

mrf_raw[mrf_raw == "NA"] <- NA
mrf_select <- mrf_raw %>% filter(complete.cases(mrf_finding_code))

mrf_select <- mrf_select %>% mutate(age = as.numeric(age))
mrf_select

# A tibble: 77 × 40
   x1       pt complete good_case_yn name               mrn review_date mrf_date
   <chr> <dbl>    <dbl> <chr>        <chr>            <dbl> <chr>       <chr>   
 1 <NA>      1        0 <NA>         Ingram, Katanya 7.41e7 44235       <NA>    
 2 <NA>      2        0 1            Hoflander, Jos… 8.77e7 44235       <NA>    
 3 <NA>      3        0 <NA>         Bradley, Jessi… 5.88e7 44235       <NA>    
 4 <NA>      4        0 <NA>         Sable, Gabriel… 7.27e7 44271       <NA>    
 5 <NA>      5        0 <NA>         Correia, Casey  4.92e7 44271       <NA>    
 6 <NA>      6        0 <NA>         Norman, Jill    8.81e7 44284       <NA>    
 7 <NA>      7        0 <NA>         Wolfe, Timothy  3.07e7 44326       <NA>    
 8 <NA>      8        0 <NA>         Bagh, Judy      8.75e7 44369       <NA>    
 9 <NA>      9        0 <NA>         Xavier, Shelton 8.27e7 44397       <NA>    
10 <NA>     10        0 <NA>         Rose, Seth      8.68e7 44397       <NA>    
# ℹ 67 more rows
# ℹ 32 more variables: mrf_finding_code <chr>,
#   mrf_finding_narrative_paste <chr>, mrf_narrative_summary <chr>,
#   mrf_narrative_summary_2 <chr>, study_no <chr>, age <dbl>, handedness <chr>,
#   sex <chr>, sz_onset <chr>, sz_duration <chr>, side_epilepsy <chr>,
#   epilepsy_lobe_count <chr>, epilepsy_loc_simp <chr>,
#   epilepsy_localization <chr>, semiology <chr>, sz_freq <chr>, …
…
